{
    "reachability_engine": "default",
    "grid_resolution": [0.5, 0.5, 0.5, 0.5],
    "time_step": 0.05,
    "unsafeSet": [["Box", [[60, 15, -10, -2000], [70, 20, 10, 2000]]]],
    "agents":
        [
            {
                "mode_list":[["follow_waypoint", [2.5, 0.5]], ["follow_waypoint", [13.2, 5]], ["follow_waypoint", [14, 8]], ["follow_waypoint", [17.2, 10]],
                ["follow_waypoint", [20.2, 9]], ["follow_waypoint", [27.2, 13]], ["follow_waypoint", [29.2, 16.25]], ["follow_waypoint", [32.2, 18]], ["follow_waypoint", [36.2, 19]],
                ["follow_waypoint", [41.4, 17.5]], ["follow_waypoint", [46.2, 15]], ["follow_waypoint", [47.7, 26]], ["follow_waypoint", [51.2, 27.5]], ["follow_waypoint", [54.7, 26.5]]],
                "variables":["x", "y", "psi", "speed"],
                "guards":[["Box", [[1.9, -0.09999999999999998, -5, -1000], [3.1, 1.1, 5, 1000]]], ["Box", [[12.6, 4.4, -5, -1000], [13.799999999999999, 5.6, 5, 1000]]], ["Box", [[13.4, 7.4, -5, -1000], [14.6, 8.6, 5, 1000]]], ["Box", [[16.599999999999998, 9.4, -5, -1000], [17.8, 10.6, 5, 1000]]],
                ["Box", [[19.6, 8.4, -5, -1000], [20.6, 9.6, 5, 1000]]], ["Box", [[26.6, 12.4, -5, -1000], [27.8, 13.6, 5, 1000]]], ["Box", [[28.6, 15.65, -5, -1000], [29.8, 16.85, 5, 1000]]], ["Box", [[31.6, 17.4, -5, -1000], [32.8, 18.6, 5, 1000]]], ["Box", [[35.6, 18.4, -5, -1000], [36.8, 19.6, 5, 1000]]],
                ["Box", [[40.8, 16.9, -5, -1000 ], [42,18.1 , 5, 1000 ]]], ["Box", [[45.6, 14.4, -5, -1000], [46.8, 15.6, 5, 1000]]], ["Box", [[47.1, 25.4, -5, -1000], [48.3, 26.6, 5, 1000]]], ["Box", [[50.6, 26.9, -5, -1000], [51.8, 28.1, 5, 1000]]], ["Box", [[54.1, 25.9, -5, -1000], [55.3, 27.3, 5, 1000]]]],
                "initialSet":["Box", [[-0.5, -0.5, 0.9, 0.5], [0.5, 0.5, 0.91, 0.6]]],
                "timeHorizons":[20.0, 20.5, 20.0, 20.0, 20.0, 20.0, 20.0, 20.0, 20.0, 20.0, 20.0, 20.0, 20.0, 20.0],
                "directory":"examples/models/FixedwingDrone_TR"
            }
        ],
    "tmp":
        [
            "Use This list as scratch space and temporary storage"
        ]
}