{
    "reachability_engine": "default",
    "grid_resolution": [0.5, 0.5, 0.5],
    "time_step": 0.02,
    "unsafeSet": [["Box", [[-10, 10, -100], [-7, 30, 100]]]],
    "symmetry_level": "2",
    "agents":
        [
            {
                "variables":["x", "y", "z"],
                "timeHorizons":[19.99, 19.99, 19.99, 19.99, 19.99, 19.99, 19.99, 19.99, 19.99, 19.99, 19.99, 19.99, 19.99, 19.99, 19.99, 19.99],
                "directory":"examples/models/Linear3D_trans_2d",
                "mode_list": [["follow_waypoint", [40, -40, 0]], ["follow_waypoint", [40, 0, 0]], ["follow_waypoint", [-40, 0, 0]],
                    ["follow_waypoint", [-40, 40, 0]], ["follow_waypoint", [40, 40, 0]], ["follow_waypoint", [40, 80, 0]],
                    ["follow_waypoint", [-40, 80, 0]], ["follow_waypoint", [-40, 120, 0]], ["follow_waypoint", [40, 120, 0]],
                    ["follow_waypoint", [40, 160, 0]], ["follow_waypoint", [-40, 160, 0]], ["follow_waypoint", [-40, 200, 0]],
                    ["follow_waypoint", [40, 200, 0]], ["follow_waypoint", [40, 240, 0]], ["follow_waypoint", [-40, 240, 0]],
                    ["follow_waypoint", [-40, 280, 0]]],
                "guards": [["Box", [[35, -45, -100], [45, -35, 100]]], ["Box", [[35, -5, -100], [45, 5, 100]]],
                    ["Box", [[-45, -5, -100], [-35, 5, 100]]], ["Box", [[-45, 35, -100], [-35, 45, 100]]],
                    ["Box", [[35, 35, -100], [45, 45, 100]]], ["Box", [[35, 75, -100], [45, 85, 100]]],
                    ["Box", [[-45, 75, -100], [-35, 85, 100]]], ["Box", [[-45, 115, -100], [-35, 125, 100]]],
                    ["Box", [[35, 115, -100], [45, 125, 100]]], ["Box", [[35, 155, -100], [45, 165, 100]]],
                    ["Box", [[-45, 155, -100], [-35, 165, 100]]], ["Box", [[-45, 195, -100], [-35, 205, 100]]],
                    ["Box", [[35, 195, -100], [45, 205, 100]]],["Box", [[35, 235, -100], [45, 245, 100]]],
                    ["Box", [[-45, 235, -100], [-35, 245, 100]]], ["Box", [[-45, 275, -100], [-35, 285, 100]]]],
                "initialSet": ["Box", [[-40.5, -40.5, -2], [-39.5, -39.5, 2]]]
            }
        ]
}