{
  "vertex": [
    "mode1",
    "mode2",
    "mode3"
  ],
  "edge": [
    [
      0,
      1
    ],
    [
      1,
      2
    ],
    [
      2,
      1
    ],
    [
      1,
      0
    ]
  ],
  "variables": [
    "x",
    "y",
    "z"
  ],
  "guards": [
    "And(x >= -0.5, x <= 0.5,y >= -0.5, y <= 0.5,z >= -100.0, z <= 100.0)",
    "And(x >= -0.5, x <= 0.5,y >= -0.5, y <= 0.5,z >= -100.0, z <= 100.0)",
    "And(x >= -0.5, x <= 0.5,y >= -0.5, y <= 0.5,z >= -100.0, z <= 100.0)",
    "And(x >= -0.5, x <= 0.5,y >= -0.5, y <= 0.5,z >= -100.0, z <= 100.0)"
  ],
  "resets": [
    [
      "x' = (x*cos(1.5707963267948966)+ y * sin(1.5707963267948966) - -5 + -5)* cos(0.0) - ( -1 * x * sin(1.5707963267948966)+ y * cos(1.5707963267948966) - 5 + 0 ) * sin(0.0 )",
      "y' = (x = (x*cos(1.5707963267948966)+ y * sin(1.5707963267948966) - -5 + -5)* cos(0.0) - ( -1 * x * sin(1.5707963267948966)+ y * cos(1.5707963267948966) - 5 + 0 ) * sin(0.0 ) + -5)* sin(0.0) + ( -1 * x * sin(1.5707963267948966)+ y * cos(1.5707963267948966) - 5 + 0 ) * cos(0.0 )",
      "z' = 0"
    ],
    [
      "x' = (x*cos(0.0)+ y * sin(0.0) - -5 + 5)* cos(-1.5707963267948966) - ( -1 * x * sin(0.0)+ y * cos(0.0) - 0 + 0 ) * sin(-1.5707963267948966 )",
      "y' = (x = (x*cos(0.0)+ y * sin(0.0) - -5 + 5)* cos(-1.5707963267948966) - ( -1 * x * sin(0.0)+ y * cos(0.0) - 0 + 0 ) * sin(-1.5707963267948966 ) + 5)* sin(-1.5707963267948966) + ( -1 * x * sin(0.0)+ y * cos(0.0) - 0 + 0 ) * cos(-1.5707963267948966 )",
      "z' = z"
    ],
    [
      "x' = (x*cos(-1.5707963267948966)+ y * sin(-1.5707963267948966) - 5 + 5)* cos(0.0) - ( -1 * x * sin(-1.5707963267948966)+ y * cos(-1.5707963267948966) - 0 + -5 ) * sin(0.0 )",
      "y' = (x = (x*cos(-1.5707963267948966)+ y * sin(-1.5707963267948966) - 5 + 5)* cos(0.0) - ( -1 * x * sin(-1.5707963267948966)+ y * cos(-1.5707963267948966) - 0 + -5 ) * sin(0.0 ) + 5)* sin(0.0) + ( -1 * x * sin(-1.5707963267948966)+ y * cos(-1.5707963267948966) - 0 + -5 ) * cos(0.0 )",
      "z' = z"
    ],
    [
      "x' = (x*cos(0.0)+ y * sin(0.0) - 5 + -5)* cos(1.5707963267948966) - ( -1 * x * sin(0.0)+ y * cos(0.0) - -5 + -5 ) * sin(1.5707963267948966 )",
      "y' = (x = (x*cos(0.0)+ y * sin(0.0) - 5 + -5)* cos(1.5707963267948966) - ( -1 * x * sin(0.0)+ y * cos(0.0) - -5 + -5 ) * sin(1.5707963267948966 ) + -5)* sin(1.5707963267948966) + ( -1 * x * sin(0.0)+ y * cos(0.0) - -5 + -5 ) * cos(1.5707963267948966 )",
      "z' = z"
    ]
  ],
  "initialSet": [
    [
      -10.5,
      -0.5,
      -2.0
    ],
    [
      -9.5,
      0.5,
      2.0
    ]
  ],
  "unsafeSet": "",
  "timeHorizon": 100,
  "directory": "./../examples/scenarios/Linear3D_S_trans_TR_2D_output.py"
}
