WARNING: Not monitoring node memory since `psutil` is not installed. Install this with `pip install psutil` (or ray[debug]) to enable debugging of memory-related crashes.
warning, called region bbox function on polytope
warning, called region bbox function on polytope
abs_edges_guards:  {((-10.0, 0.0, 0.0), (0, -5, 0)): [(array([[  -0.5,   -0.5, -100. ],
       [   0.5,    0.5,  100. ]]), (array([-5,  5,  0]), 1.5707963267948966), (array([-5,  0,  0]), 0.0)), (array([[  -0.5,   -0.5, -100. ],
       [   0.5,    0.5,  100. ]]), (array([-5, -5,  0]), 1.5707963267948966), (array([ -5, -10,   0]), 0.0)), (array([[  -0.5,   -0.5, -100. ],
       [   0.5,    0.5,  100. ]]), (array([ -5, -15,   0]), 1.5707963267948966), (array([ -5, -20,   0]), 0.0)), (array([[  -0.5,   -0.5, -100. ],
       [   0.5,    0.5,  100. ]]), (array([ -5, -25,   0]), 1.5707963267948966), (array([ -5, -30,   0]), 0.0))], ((0, -5, 0), (10, 0, 0)): [(array([[  -0.5,   -0.5, -100. ],
       [   0.5,    0.5,  100. ]]), (array([-5,  0,  0]), 0.0), (array([5, 0, 0]), -1.5707963267948966)), (array([[  -0.5,   -0.5, -100. ],
       [   0.5,    0.5,  100. ]]), (array([ -5, -10,   0]), 0.0), (array([  5, -10,   0]), -1.5707963267948966)), (array([[  -0.5,   -0.5, -100. ],
       [   0.5,    0.5,  100. ]]), (array([ -5, -20,   0]), 0.0), (array([  5, -20,   0]), -1.5707963267948966)), (array([[  -0.5,   -0.5, -100. ],
       [   0.5,    0.5,  100. ]]), (array([ -5, -30,   0]), 0.0), (array([  5, -30,   0]), -1.5707963267948966))], ((10, 0, 0), (0, -5, 0)): [(array([[  -0.5,   -0.5, -100. ],
       [   0.5,    0.5,  100. ]]), (array([5, 0, 0]), -1.5707963267948966), (array([ 5, -5,  0]), 0.0)), (array([[  -0.5,   -0.5, -100. ],
       [   0.5,    0.5,  100. ]]), (array([  5, -10,   0]), -1.5707963267948966), (array([  5, -15,   0]), 0.0)), (array([[  -0.5,   -0.5, -100. ],
       [   0.5,    0.5,  100. ]]), (array([  5, -20,   0]), -1.5707963267948966), (array([  5, -25,   0]), 0.0)), (array([[  -0.5,   -0.5, -100. ],
       [   0.5,    0.5,  100. ]]), (array([  5, -30,   0]), -1.5707963267948966), (array([  5, -35,   0]), 0.0))], ((0, -5, 0), (-10, 0, 0)): [(array([[  -0.5,   -0.5, -100. ],
       [   0.5,    0.5,  100. ]]), (array([ 5, -5,  0]), 0.0), (array([-5, -5,  0]), 1.5707963267948966)), (array([[  -0.5,   -0.5, -100. ],
       [   0.5,    0.5,  100. ]]), (array([  5, -15,   0]), 0.0), (array([ -5, -15,   0]), 1.5707963267948966)), (array([[  -0.5,   -0.5, -100. ],
       [   0.5,    0.5,  100. ]]), (array([  5, -25,   0]), 0.0), (array([ -5, -25,   0]), 1.5707963267948966))]}
Warning, not using symmetry
warning, called region bbox function on polytope
warning, called region bbox function on polytope
len(self.uncovered_sets.list_poly) total :  0
Segment  0  tube is computed with waypoint:  [5, -5, 0]
len(self.uncovered_sets.list_poly) total :  0
Segment  1  tube is computed with waypoint:  [5, 0, 0]
len(self.uncovered_sets.list_poly) total :  0
Segment  2  tube is computed with waypoint:  [-5, 0, 0]
len(self.uncovered_sets.list_poly) total :  0
Segment  3  tube is computed with waypoint:  [-5, 5, 0]
len(self.uncovered_sets.list_poly) total :  0
Segment  4  tube is computed with waypoint:  [5, 5, 0]
len(self.uncovered_sets.list_poly) total :  0
Segment  5  tube is computed with waypoint:  [5, 10, 0]
len(self.uncovered_sets.list_poly) total :  0
Segment  6  tube is computed with waypoint:  [-5, 10, 0]
len(self.uncovered_sets.list_poly) total :  0
Segment  7  tube is computed with waypoint:  [-5, 15, 0]
len(self.uncovered_sets.list_poly) total :  0
Segment  8  tube is computed with waypoint:  [5, 15, 0]
len(self.uncovered_sets.list_poly) total :  0
Segment  9  tube is computed with waypoint:  [5, 20, 0]
len(self.uncovered_sets.list_poly) total :  0
Segment  10  tube is computed with waypoint:  [-5, 20, 0]
len(self.uncovered_sets.list_poly) total :  0
Segment  11  tube is computed with waypoint:  [-5, 25, 0]
len(self.uncovered_sets.list_poly) total :  0
Segment  12  tube is computed with waypoint:  [5, 25, 0]
len(self.uncovered_sets.list_poly) total :  0
Segment  13  tube is computed with waypoint:  [5, 30, 0]
len(self.uncovered_sets.list_poly) total :  0
Segment  14  tube is computed with waypoint:  [-5, 30, 0]
len(self.uncovered_sets.list_poly) total :  0
Segment  15  tube is computed with waypoint:  [-5, 35, 0]
Is segment safe? True
Is segment safe? True
Is segment safe? True
Is segment safe? True
Is segment safe? True
Is segment safe? True
Is segment safe? True
Is segment safe? True
Is segment safe? True
Is segment safe? True
Is segment safe? True
Is segment safe? True
Is segment safe? True
Is segment safe? True
Is segment safe? True
Is segment safe? True
finished agent # 1
Number of computed tubes:  435
Number of saved tubes:  0
Number of saved without search tubes:  0
Final Number of computed tubes:  435
Final Number of saved tubes:  0
Final Number of ultrasaved tubes:  0
execution time:  1.4441341519355775
transform time per agent: [0.020804194609324138]
(-10.0, 0.0, 0.0) -> (0, -5, 0)
(-10.0, 0.0, 0.0) -> (0, -5, 0)
(-10.0, 0.0, 0.0) -> (0, -5, 0)
(-10.0, 0.0, 0.0) -> (0, -5, 0)
(0, -5, 0) -> (10, 0, 0)
(0, -5, 0) -> (-10, 0, 0)
(0, -5, 0) -> (10, 0, 0)
(0, -5, 0) -> (-10, 0, 0)
(0, -5, 0) -> (10, 0, 0)
(0, -5, 0) -> (-10, 0, 0)
(0, -5, 0) -> (10, 0, 0)
(10, 0, 0) -> (0, -5, 0)
(10, 0, 0) -> (0, -5, 0)
(10, 0, 0) -> (0, -5, 0)
(10, 0, 0) -> (0, -5, 0)
System is safe
