{
  "vertex": [
    "(-10.0, 0.0, 0.0)",
    "(0, -5, 0)",
    "(10, 0, 0)"
  ],
  "edge": [
    [
      0,
      1
    ],
    [
      1,
      2
    ],
    [
      2,
      1
    ],
    [
      1,
      0
    ]
  ],
  "variables": [
    "x",
    "y",
    "z"
  ],
  "guards": [
    "And(x >= -0.5, x <= 0.5,y >= -0.5, y <= 0.5,z >= -100.0, z <= 100.0)",
    "And(x >= -0.5, x <= 0.5,y >= -0.5, y <= 0.5,z >= -100.0, z <= 100.0)",
    "And(x >= -0.5, x <= 0.5,y >= -0.5, y <= 0.5,z >= -100.0, z <= 100.0)",
    "And(x >= -0.5, x <= 0.5,y >= -0.5, y <= 0.5,z >= -100.0, z <= 100.0)"
  ],
  "resets": [
    "x = (x*cos(1.5707963267948966)+ y * sin(1.5707963267948966) - -5 + -5)* cos(0.0) - ( -1 * x * sin(1.5707963267948966)+ y * cos(1.5707963267948966) - 5 + 0 ) * sin(0.0 );y = ((x*cos(1.5707963267948966)+ y * sin(1.5707963267948966) - -5 + -5)* cos(0.0) - ( -1 * x * sin(1.5707963267948966)+ y * cos(1.5707963267948966) - 5 + 0 ) * sin(0.0 ) + -5)* sin(0.0) + ( -1 * x * sin(1.5707963267948966)+ y * cos(1.5707963267948966) - 5 + 0 ) * cos(0.0 ); z = 0",
    "x = (x*cos(0.0)+ y * sin(0.0) - -5 + 5)* cos(-1.5707963267948966) - ( -1 * x * sin(0.0)+ y * cos(0.0) - 0 + 0 ) * sin(-1.5707963267948966 );y = ((x*cos(0.0)+ y * sin(0.0) - -5 + 5)* cos(-1.5707963267948966) - ( -1 * x * sin(0.0)+ y * cos(0.0) - 0 + 0 ) * sin(-1.5707963267948966 ) + 5)* sin(-1.5707963267948966) + ( -1 * x * sin(0.0)+ y * cos(0.0) - 0 + 0 ) * cos(-1.5707963267948966 ); z = 0",
    "x = (x*cos(-1.5707963267948966)+ y * sin(-1.5707963267948966) - 5 + 5)* cos(0.0) - ( -1 * x * sin(-1.5707963267948966)+ y * cos(-1.5707963267948966) - 0 + -5 ) * sin(0.0 );y = ((x*cos(-1.5707963267948966)+ y * sin(-1.5707963267948966) - 5 + 5)* cos(0.0) - ( -1 * x * sin(-1.5707963267948966)+ y * cos(-1.5707963267948966) - 0 + -5 ) * sin(0.0 ) + 5)* sin(0.0) + ( -1 * x * sin(-1.5707963267948966)+ y * cos(-1.5707963267948966) - 0 + -5 ) * cos(0.0 ); z = 0",
    "x = (x*cos(0.0)+ y * sin(0.0) - 5 + -5)* cos(1.5707963267948966) - ( -1 * x * sin(0.0)+ y * cos(0.0) - -5 + -5 ) * sin(1.5707963267948966 );y = ((x*cos(0.0)+ y * sin(0.0) - 5 + -5)* cos(1.5707963267948966) - ( -1 * x * sin(0.0)+ y * cos(0.0) - -5 + -5 ) * sin(1.5707963267948966 ) + -5)* sin(1.5707963267948966) + ( -1 * x * sin(0.0)+ y * cos(0.0) - -5 + -5 ) * cos(1.5707963267948966 ); z = 0"
  ],
  "initialSet": [
    [
      -10.5,
      -0.5,
      -2.0
    ],
    [
      -9.5,
      0.5,
      2.0
    ]
  ],
  "unsafeSet": "",
  "timeHorizon": 79.96,
  "directory": "Linear3D_S_trans_2D",
  "initialVertex": 0,
  "bloatingMethod": "PW",
  "kvalue": [
    1,
    1,
    1
  ]
}